Lab1/counterTesterLog.vcd
$date
	Thu Apr 13 12:56:51 2017
$end
$version
	Icarus Verilog
$end
$timescale
	1s
$end
$scope module DE1_SoC $end
$var wire 1 ! CLOCK_50 $end
$var wire 7 " HEX0 [6:0] $end
$var wire 7 # HEX1 [6:0] $end
$var wire 7 $ HEX2 [6:0] $end
$var wire 7 % HEX3 [6:0] $end
$var wire 7 & HEX4 [6:0] $end
$var wire 7 ' HEX5 [6:0] $end
$var wire 4 ( KEY [3:0] $end
$var wire 10 ) LEDR [9:0] $end
$var wire 10 * SW [9:0] $end
$var wire 32 + clk [31:0] $end
$scope module cdiv $end
$var wire 1 ! clock $end
$var reg 32 , divided_clocks [31:0] $end
$upscope $end
$upscope $end
$scope module counterTestBench $end
$var wire 1 - clk $end
$var wire 1 . reset $end
$var wire 4 / rippleCount [3:0] $end
$scope module rCounter $end
$var wire 1 - clk $end
$var wire 4 0 count [3:0] $end
$var wire 4 1 countbar [3:0] $end
$var wire 1 . reset $end
$scope module bit0 $end
$var wire 1 2 D $end
$var wire 1 - clk $end
$var wire 1 3 qBar $end
$var wire 1 . reset $end
$var reg 1 4 q $end
$upscope $end
$scope module bit1 $end
$var wire 1 5 D $end
$var wire 1 6 clk $end
$var wire 1 7 qBar $end
$var wire 1 . reset $end
$var reg 1 8 q $end
$upscope $end
$scope module bit2 $end
$var wire 1 9 D $end
$var wire 1 : clk $end
$var wire 1 ; qBar $end
$var wire 1 . reset $end
$var reg 1 < q $end
$upscope $end
$scope module bit3 $end
$var wire 1 = D $end
$var wire 1 > clk $end
$var wire 1 ? qBar $end
$var wire 1 . reset $end
$var reg 1 @ q $end
$upscope $end
$upscope $end
$scope module test $end
$var wire 4 A johnsonCount [3:0] $end
$var wire 4 B rippleCount [3:0] $end
$var reg 1 C clk $end
$var reg 1 D reset $end
$upscope $end
$upscope $end
$enddefinitions $end
#0
$dumpvars
xD
0C
bx B
b0 A
x@
x?
x>
x=
x<
x;
x:
x9
x8
x7
x6
x5
x4
x3
x2
bx 1
bx 0
bx /
x.
0-
b0 ,
b0 +
bz *
bz )
bz (
bz '
bz &
bz %
bz $
bz #
bz "
z!
$end
#50
1=
19
15
12
1?
1;
0>
17
0:
13
b1111 1
06
0@
0<
08
04
b0 /
b0 0
b0 B
0D
0.
1C
1-
#100
0C
0-
#150
1C
1-
#200
0C
0-
#250
1D
1.
1C
1-
#300
0C
0-
#350
0=
0?
09
1@
0;
1>
05
1<
07
1:
02
18
03
b0 1
16
14
b1111 /
b1111 0
b1111 B
1C
1-
#400
0C
0-
#450
12
13
b1 1
06
04
b1110 /
b1110 0
b1110 B
1C
1-
#500
0C
0-
#550
15
17
0:
02
08
03
b10 1
16
14
b1101 /
b1101 0
b1101 B
1C
1-
#600
0C
0-
#650
12
13
b11 1
06
04
b1100 /
b1100 0
b1100 B
1C
1-
#700
0C
0-
#750
19
1;
0>
05
0<
07
1:
02
18
03
b100 1
16
14
b1011 /
b1011 0
b1011 B
1C
1-
#800
0C
0-
#850
12
13
b101 1
06
04
b1010 /
b1010 0
b1010 B
1C
1-
#900
0C
0-
#950
15
17
0:
02
08
03
b110 1
16
14
b1001 /
b1001 0
b1001 B
1C
1-
#1000
0C
0-
#1050
12
13
b111 1
06
04
b1000 /
b1000 0
b1000 B
1C
1-
#1100
0C
0-
#1150
1=
1?
09
0@
0;
1>
05
1<
07
1:
02
18
03
b1000 1
16
14
b111 /
b111 0
b111 B
1C
1-
#1200
0C
0-
#1250
12
13
b1001 1
06
04
b110 /
b110 0
b110 B
1C
1-
#1300
0C
0-
#1350
15
17
0:
02
08
03
b1010 1
16
14
b101 /
b101 0
b101 B
1C
1-
#1400
0C
0-
#1450
12
13
b1011 1
06
04
b100 /
b100 0
b100 B
1C
1-
#1500
0C
0-
#1550
19
1;
0>
05
0<
07
1:
02
18
03
b1100 1
16
14
b11 /
b11 0
b11 B
1C
1-
#1600
0C
0-
#1650
12
13
b1101 1
06
04
b10 /
b10 0
b10 B
1C
1-
#1700
0C
0-
#1750
15
17
0:
02
08
03
b1110 1
16
14
b1 /
b1 0
b1 B
1C
1-
#1800
0C
0-
#1850
12
13
b1111 1
06
04
b0 /
b0 0
b0 B
1C
1-
#1900
0C
0-
#1950
0=
0?
09
1@
0;
1>
05
1<
07
1:
02
18
03
b0 1
16
14
b1111 /
b1111 0
b1111 B
1C
1-
#2000
0C
0-
#2050
12
13
b1 1
06
04
b1110 /
b1110 0
b1110 B
1C
1-
#2100
0C
0-
#2150
15
17
0:
02
08
03
b10 1
16
14
b1101 /
b1101 0
b1101 B
1C
1-
#2200
0C
0-
#2250
12
13
b11 1
06
04
b1100 /
b1100 0
b1100 B
1C
1-
#2300
0C
0-
#2350
19
1;
0>
05
0<
07
1:
02
18
03
b100 1
16
14
b1011 /
b1011 0
b1011 B
1C
1-
#2400
0C
0-
#2450
12
13
b101 1
06
04
b1010 /
b1010 0
b1010 B
1C
1-
#2500
0C
0-
#2550
15
17
0:
02
08
03
b110 1
16
14
b1001 /
b1001 0
b1001 B
1C
1-
#2600
0C
0-
#2650
12
13
b111 1
06
04
b1000 /
b1000 0
b1000 B
1C
1-
#2700
0C
0-
#2750
1=
1?
09
0@
0;
1>
05
1<
07
1:
02
18
03
b1000 1
16
14
b111 /
b111 0
b111 B
1C
1-
#2800
0C
0-
#2850
12
13
b1001 1
06
04
b110 /
b110 0
b110 B
1C
1-
#2900
0C
0-
#2950
15
17
0:
02
08
03
b1010 1
16
14
b101 /
b101 0
b101 B
1C
1-
#3000
0C
0-
#3050
12
13
b1011 1
06
04
b100 /
b100 0
b100 B
1C
1-
#3100
0C
0-
#3150
19
1;
0>
05
0<
07
1:
02
18
03
b1100 1
16
14
b11 /
b11 0
b11 B
1C
1-
#3200
0C
0-
#3250
12
13
b1101 1
06
04
b10 /
b10 0
b10 B
1C
1-
#3300
0C
0-
#3350
15
17
0:
02
08
03
b1110 1
16
14
b1 /
b1 0
b1 B
1C
1-
